G04 Layer_Physical_Order=2*
G04 Layer_Color=16711680*
%FSTAX24Y24*%
%MOIN*%
G70*
G01*
G75*
%ADD24C,0.0060*%
%ADD25C,0.0200*%
%ADD27C,0.0600*%
%ADD28R,0.0591X0.0591*%
%ADD29C,0.0591*%
%ADD30C,0.1575*%
%ADD31C,0.0787*%
G04:AMPARAMS|DCode=32|XSize=98.4mil|YSize=98.4mil|CornerRadius=24.6mil|HoleSize=0mil|Usage=FLASHONLY|Rotation=180.000|XOffset=0mil|YOffset=0mil|HoleType=Round|Shape=RoundedRectangle|*
%AMROUNDEDRECTD32*
21,1,0.0984,0.0492,0,0,180.0*
21,1,0.0492,0.0984,0,0,180.0*
1,1,0.0492,-0.0246,0.0246*
1,1,0.0492,0.0246,0.0246*
1,1,0.0492,0.0246,-0.0246*
1,1,0.0492,-0.0246,-0.0246*
%
%ADD32ROUNDEDRECTD32*%
%ADD33C,0.0984*%
%ADD34R,0.0709X0.0709*%
%ADD35O,0.1200X0.1100*%
%ADD36R,0.0984X0.0787*%
%ADD37C,0.0750*%
%ADD38O,0.0600X0.0400*%
%ADD39C,0.0200*%
%ADD40R,0.0472X0.0984*%
%ADD41C,0.0600*%
G36*
X04175Y041785D02*
X0417Y041768D01*
X041664Y041814D01*
X0416Y041863D01*
X041526Y041894D01*
X041446Y041905D01*
X040954D01*
X040874Y041894D01*
X0408Y041863D01*
X040736Y041814D01*
X040687Y04175D01*
X040656Y041676D01*
X040645Y041596D01*
Y041104D01*
X040656Y041024D01*
X040687Y04095D01*
X040736Y040886D01*
X0408Y040837D01*
X040874Y040806D01*
X040954Y040795D01*
X041446D01*
X041526Y040806D01*
X0416Y040837D01*
X041664Y040886D01*
X0417Y040932D01*
X04175Y040915D01*
Y038D01*
X0418D01*
X04182Y03795D01*
X038935Y035065D01*
X038915Y035035D01*
X038908Y035D01*
Y033731D01*
X038885Y033715D01*
X038849Y033662D01*
X038837Y0336D01*
X038849Y033538D01*
X038885Y033485D01*
X038938Y033449D01*
X039Y033437D01*
X039062Y033449D01*
X039115Y033485D01*
X039151Y033538D01*
X039163Y0336D01*
X039151Y033662D01*
X039115Y033715D01*
X039092Y033731D01*
Y034962D01*
X041938Y037808D01*
X045412D01*
X046472Y036748D01*
X046453Y036702D01*
X046429D01*
Y035598D01*
X047021D01*
Y036702D01*
X046778D01*
X04553Y03795D01*
X04555Y038D01*
X0485D01*
Y036702D01*
X048003D01*
Y035598D01*
X048208D01*
Y035092D01*
X04754D01*
X047527Y035115D01*
X047522Y035142D01*
X047565Y035185D01*
X047585Y035215D01*
X047592Y03525D01*
Y035598D01*
X047808D01*
Y036702D01*
X047216D01*
Y035598D01*
X047408D01*
Y035292D01*
X04265D01*
X042615Y035285D01*
X042585Y035265D01*
X040735Y033415D01*
X040715Y033385D01*
X040708Y03335D01*
Y032624D01*
X040696Y032615D01*
X04066Y032562D01*
X040648Y0325D01*
X04066Y032438D01*
X040696Y032385D01*
X040749Y032349D01*
X040811Y032337D01*
X040873Y032349D01*
X040926Y032385D01*
X040962Y032438D01*
X040974Y0325D01*
X040962Y032562D01*
X040926Y032615D01*
X040892Y032638D01*
Y033312D01*
X041656Y034076D01*
X041682Y034069D01*
X041704Y034054D01*
Y032627D01*
X041681Y032611D01*
X041645Y032558D01*
X041633Y032496D01*
X041645Y032434D01*
X041681Y032381D01*
X041734Y032345D01*
X041796Y032333D01*
X041858Y032345D01*
X041911Y032381D01*
X041947Y032434D01*
X041959Y032496D01*
X041947Y032558D01*
X041911Y032611D01*
X041888Y032627D01*
Y034025D01*
X042049Y034186D01*
X042075Y034179D01*
X042097Y034164D01*
Y03262D01*
X042074Y032604D01*
X042038Y032551D01*
X042026Y032489D01*
X042038Y032427D01*
X042074Y032374D01*
X042127Y032338D01*
X042189Y032326D01*
X042251Y032338D01*
X042304Y032374D01*
X04234Y032427D01*
X042352Y032489D01*
X04234Y032551D01*
X042304Y032604D01*
X042281Y03262D01*
Y034135D01*
X042904Y034758D01*
X043493D01*
X043506Y034735D01*
X043511Y034708D01*
X042935Y034132D01*
X042915Y034102D01*
X042908Y034067D01*
Y033581D01*
X042885Y033565D01*
X042849Y033512D01*
X042837Y03345D01*
X042849Y033388D01*
X042885Y033335D01*
X042938Y033299D01*
X043Y033287D01*
X043062Y033299D01*
X043115Y033335D01*
X043151Y033388D01*
X043163Y03345D01*
X043151Y033512D01*
X043115Y033565D01*
X043092Y033581D01*
Y034029D01*
X043621Y034558D01*
X044062D01*
X044077Y034508D01*
X044056Y034494D01*
X044012Y034428D01*
X044006Y0344D01*
X044394D01*
X044388Y034428D01*
X044344Y034494D01*
X044323Y034508D01*
X044338Y034558D01*
X044762D01*
X044777Y034508D01*
X044756Y034494D01*
X044712Y034428D01*
X044706Y0344D01*
X045094D01*
X045088Y034428D01*
X045044Y034494D01*
X045023Y034508D01*
X045038Y034558D01*
X045462D01*
X045477Y034508D01*
X045456Y034494D01*
X045412Y034428D01*
X045406Y0344D01*
X045794D01*
X045788Y034428D01*
X045744Y034494D01*
X045723Y034508D01*
X045738Y034558D01*
X047412D01*
X047458Y034512D01*
Y031696D01*
X047457Y031696D01*
X047371Y03166D01*
X047297Y031603D01*
X04724Y031529D01*
X047204Y031443D01*
X047192Y03135D01*
X047204Y031257D01*
X04724Y031171D01*
X047297Y031097D01*
X047371Y03104D01*
X047457Y031004D01*
X04755Y030992D01*
X047643Y031004D01*
X047729Y03104D01*
X047803Y031097D01*
X04786Y031171D01*
X047896Y031257D01*
X047908Y03135D01*
X047896Y031443D01*
X04786Y031529D01*
X047803Y031603D01*
X047729Y03166D01*
X047643Y031696D01*
X047642Y031696D01*
Y03455D01*
X047635Y034585D01*
X047615Y034615D01*
X047522Y034708D01*
X047527Y034735D01*
X04754Y034758D01*
X048008D01*
Y030888D01*
X047523Y030403D01*
X047216D01*
Y029299D01*
X047808D01*
Y030403D01*
X047808Y030403D01*
X047808D01*
X047826Y030446D01*
X048165Y030785D01*
X048185Y030815D01*
X048192Y03085D01*
Y0348D01*
X048185Y034835D01*
X048169Y034858D01*
X048183Y034908D01*
X04825D01*
X048285Y034915D01*
X048315Y034935D01*
X048364Y034985D01*
X048384Y035014D01*
X048391Y03505D01*
Y035598D01*
X0485D01*
Y03445D01*
X050219D01*
X050247Y0344D01*
X050237Y03435D01*
X050249Y034288D01*
X050285Y034235D01*
X050308Y034219D01*
Y031581D01*
X050285Y031565D01*
X050249Y031512D01*
X050237Y03145D01*
X050249Y031388D01*
X050285Y031335D01*
X050338Y031299D01*
X0504Y031287D01*
X050462Y031299D01*
X050515Y031335D01*
X050551Y031388D01*
X050563Y03145D01*
X050551Y031512D01*
X050515Y031565D01*
X050492Y031581D01*
Y034219D01*
X050515Y034235D01*
X050551Y034288D01*
X050563Y03435D01*
X050553Y0344D01*
X050581Y03445D01*
X0545D01*
Y02935D01*
X04875D01*
Y02765D01*
X044885D01*
X044782Y027705D01*
X044622Y027754D01*
X044456Y02777D01*
X04429Y027754D01*
X04413Y027705D01*
X044027Y02765D01*
X0401D01*
Y02915D01*
X039992D01*
X039964Y029169D01*
X039929Y029176D01*
X03445D01*
Y04205D01*
X04175D01*
Y041785D01*
D02*
G37*
G36*
X05295Y04395D02*
Y04255D01*
X0525Y0421D01*
X0508D01*
X0506Y0419D01*
Y0405D01*
X0508Y0403D01*
X0531D01*
X0533Y0401D01*
Y03875D01*
X0531Y03855D01*
X04945D01*
X0484Y0396D01*
Y0439D01*
X049012Y0446D01*
X0523D01*
X05295Y04395D01*
D02*
G37*
G36*
X05455Y049D02*
Y03725D01*
X05385Y03655D01*
X05225D01*
X05185Y03695D01*
Y0377D01*
X0521Y03795D01*
X0537D01*
X0537Y04765D01*
X05345Y0479D01*
X04995Y0479D01*
X04985Y0478D01*
X049D01*
X04855Y04825D01*
Y0491D01*
X049Y04955D01*
X054D01*
X05455Y049D01*
D02*
G37*
G36*
X04635Y0493D02*
Y0479D01*
X046Y04755D01*
X043D01*
X0427Y04725D01*
X0406D01*
Y04575D01*
X0404Y04555D01*
X0391D01*
Y0456D01*
X03885Y04585D01*
Y0471D01*
X0384Y04755D01*
Y04905D01*
X0385Y0492D01*
X041188D01*
X041333Y04945D01*
X0462D01*
X04635Y0493D01*
D02*
G37*
G36*
X0375Y04855D02*
Y04665D01*
X0376Y04655D01*
Y0453D01*
X03735Y04505D01*
X03635Y04505D01*
X0361Y0453D01*
Y0484D01*
Y0486D01*
X0364Y0488D01*
X03725D01*
X0375Y04855D01*
D02*
G37*
G36*
X03835Y04405D02*
X0459D01*
X0461Y04385D01*
Y04295D01*
X0456Y04245D01*
X0416D01*
X04155Y0424D01*
X04125Y0427D01*
X03635D01*
X0361Y0429D01*
Y04405D01*
X03635Y0443D01*
X0381D01*
X03835Y04405D01*
D02*
G37*
%LPC*%
G36*
X03805Y031504D02*
X037972Y031488D01*
X037906Y031444D01*
X037862Y031378D01*
X037856Y03135D01*
X038244D01*
X038238Y031378D01*
X038194Y031444D01*
X038128Y031488D01*
X03805Y031504D01*
D02*
G37*
G36*
X03635Y031404D02*
X036272Y031388D01*
X036206Y031344D01*
X036162Y031278D01*
X036156Y03125D01*
X036544D01*
X036538Y031278D01*
X036494Y031344D01*
X036428Y031388D01*
X03635Y031404D01*
D02*
G37*
G36*
X05185Y032613D02*
X05175D01*
X05163Y032601D01*
X051515Y032566D01*
X051409Y03251D01*
X051317Y032433D01*
X05124Y032341D01*
X051184Y032235D01*
X051149Y03212D01*
X051137Y032D01*
X051149Y03188D01*
X051184Y031765D01*
X05124Y031659D01*
X051317Y031567D01*
X051409Y03149D01*
X051515Y031434D01*
X05163Y031399D01*
X05175Y031387D01*
X05185D01*
X05197Y031399D01*
X052085Y031434D01*
X052191Y03149D01*
X052283Y031567D01*
X05236Y031659D01*
X052416Y031765D01*
X052451Y03188D01*
X052463Y032D01*
X052451Y03212D01*
X052416Y032235D01*
X05236Y032341D01*
X052283Y032433D01*
X052191Y03251D01*
X052085Y032566D01*
X05197Y032601D01*
X05185Y032613D01*
D02*
G37*
G36*
X053794Y03165D02*
X053406D01*
X053412Y031622D01*
X053456Y031556D01*
X053522Y031512D01*
X0536Y031496D01*
X053678Y031512D01*
X053744Y031556D01*
X053788Y031622D01*
X053794Y03165D01*
D02*
G37*
G36*
X038244Y03125D02*
X037856D01*
X037862Y031222D01*
X037906Y031156D01*
X037972Y031112D01*
X03805Y031096D01*
X038128Y031112D01*
X038194Y031156D01*
X038238Y031222D01*
X038244Y03125D01*
D02*
G37*
G36*
X036544Y03115D02*
X036156D01*
X036162Y031122D01*
X036206Y031056D01*
X036272Y031012D01*
X03635Y030996D01*
X036428Y031012D01*
X036494Y031056D01*
X036538Y031122D01*
X036544Y03115D01*
D02*
G37*
G36*
X0536Y031254D02*
X053522Y031238D01*
X053456Y031194D01*
X053412Y031128D01*
X053406Y0311D01*
X053794D01*
X053788Y031128D01*
X053744Y031194D01*
X053678Y031238D01*
X0536Y031254D01*
D02*
G37*
G36*
X0358Y031404D02*
X035722Y031388D01*
X035656Y031344D01*
X035612Y031278D01*
X035606Y03125D01*
X035994D01*
X035988Y031278D01*
X035944Y031344D01*
X035878Y031388D01*
X0358Y031404D01*
D02*
G37*
G36*
X035994Y03115D02*
X035606D01*
X035612Y031122D01*
X035656Y031056D01*
X035722Y031012D01*
X0358Y030996D01*
X035878Y031012D01*
X035944Y031056D01*
X035988Y031122D01*
X035994Y03115D01*
D02*
G37*
G36*
X0536Y031904D02*
X053522Y031888D01*
X053456Y031844D01*
X053412Y031778D01*
X053406Y03175D01*
X053794D01*
X053788Y031778D01*
X053744Y031844D01*
X053678Y031888D01*
X0536Y031904D01*
D02*
G37*
G36*
X044444Y03275D02*
X044056D01*
X044062Y032722D01*
X044106Y032656D01*
X044172Y032612D01*
X04425Y032596D01*
X044328Y032612D01*
X044394Y032656D01*
X044438Y032722D01*
X044444Y03275D01*
D02*
G37*
G36*
X0536Y032604D02*
X053522Y032588D01*
X053456Y032544D01*
X053412Y032478D01*
X053406Y03245D01*
X053794D01*
X053788Y032478D01*
X053744Y032544D01*
X053678Y032588D01*
X0536Y032604D01*
D02*
G37*
G36*
X04425Y033004D02*
X044172Y032988D01*
X044106Y032944D01*
X044062Y032878D01*
X044056Y03285D01*
X044444D01*
X044438Y032878D01*
X044394Y032944D01*
X044328Y032988D01*
X04425Y033004D01*
D02*
G37*
G36*
X051708Y033913D02*
X051614Y033901D01*
X051526Y033864D01*
X051451Y033807D01*
X051393Y033732D01*
X051357Y033644D01*
X051345Y03355D01*
X051357Y033456D01*
X051393Y033368D01*
X051451Y033293D01*
X051526Y033236D01*
X051614Y033199D01*
X051708Y033187D01*
X051802Y033199D01*
X051889Y033236D01*
X051965Y033293D01*
X052022Y033368D01*
X052059Y033456D01*
X052071Y03355D01*
X052059Y033644D01*
X052022Y033732D01*
X051965Y033807D01*
X051889Y033864D01*
X051802Y033901D01*
X051708Y033913D01*
D02*
G37*
G36*
X037044Y0332D02*
X036656D01*
X036662Y033172D01*
X036706Y033106D01*
X036772Y033062D01*
X03685Y033046D01*
X036928Y033062D01*
X036994Y033106D01*
X037038Y033172D01*
X037044Y0332D01*
D02*
G37*
G36*
X04595Y033263D02*
X045888Y033251D01*
X045835Y033215D01*
X045799Y033162D01*
X045787Y0331D01*
X045799Y033038D01*
X045835Y032985D01*
X045858Y032969D01*
Y032181D01*
X045835Y032165D01*
X045799Y032112D01*
X045787Y03205D01*
X045799Y031988D01*
X045835Y031935D01*
X045888Y031899D01*
X04595Y031887D01*
X046012Y031899D01*
X046065Y031935D01*
X046101Y031988D01*
X046113Y03205D01*
X046101Y032112D01*
X046065Y032165D01*
X046042Y032181D01*
Y032969D01*
X046065Y032985D01*
X046101Y033038D01*
X046113Y0331D01*
X046101Y033162D01*
X046065Y033215D01*
X046012Y033251D01*
X04595Y033263D01*
D02*
G37*
G36*
X03685Y032689D02*
X036736Y032674D01*
X036631Y03263D01*
X03654Y03256D01*
X03647Y032469D01*
X036426Y032364D01*
X036411Y03225D01*
X036426Y032136D01*
X03647Y032031D01*
X03654Y03194D01*
X036631Y03187D01*
X036736Y031826D01*
X03685Y031811D01*
X036964Y031826D01*
X037069Y03187D01*
X03716Y03194D01*
X03723Y032031D01*
X037274Y032136D01*
X037289Y03225D01*
X037274Y032364D01*
X03723Y032469D01*
X03716Y03256D01*
X037069Y03263D01*
X036964Y032674D01*
X03685Y032689D01*
D02*
G37*
G36*
X047294Y03205D02*
X046906D01*
X046912Y032022D01*
X046956Y031956D01*
X047022Y031912D01*
X0471Y031896D01*
X047178Y031912D01*
X047244Y031956D01*
X047288Y032022D01*
X047294Y03205D01*
D02*
G37*
G36*
X053794Y03235D02*
X053406D01*
X053412Y032322D01*
X053456Y032256D01*
X053522Y032212D01*
X0536Y032196D01*
X053678Y032212D01*
X053744Y032256D01*
X053788Y032322D01*
X053794Y03235D01*
D02*
G37*
G36*
X0471Y032304D02*
X047022Y032288D01*
X046956Y032244D01*
X046912Y032178D01*
X046906Y03215D01*
X047294D01*
X047288Y032178D01*
X047244Y032244D01*
X047178Y032288D01*
X0471Y032304D01*
D02*
G37*
G36*
X04825Y030443D02*
X047963D01*
Y029259D01*
X04825D01*
Y029851D01*
Y030443D01*
D02*
G37*
G36*
X047111Y029215D02*
X047033Y029199D01*
X046967Y029155D01*
X046923Y029089D01*
X046917Y029061D01*
X047305D01*
X047299Y029089D01*
X047255Y029155D01*
X047189Y029199D01*
X047111Y029215D01*
D02*
G37*
G36*
X048636Y030443D02*
X04835D01*
Y029851D01*
Y029259D01*
X048636D01*
Y030443D01*
D02*
G37*
G36*
X03805Y029754D02*
X037972Y029738D01*
X037906Y029694D01*
X037862Y029628D01*
X037856Y0296D01*
X038244D01*
X038238Y029628D01*
X038194Y029694D01*
X038128Y029738D01*
X03805Y029754D01*
D02*
G37*
G36*
X038244Y0295D02*
X037856D01*
X037862Y029472D01*
X037906Y029406D01*
X037972Y029362D01*
X03805Y029346D01*
X038128Y029362D01*
X038194Y029406D01*
X038238Y029472D01*
X038244Y0295D01*
D02*
G37*
G36*
X047744Y02815D02*
X047356D01*
X047362Y028122D01*
X047406Y028056D01*
X047472Y028012D01*
X04755Y027996D01*
X047628Y028012D01*
X047694Y028056D01*
X047738Y028122D01*
X047744Y02815D01*
D02*
G37*
G36*
X047094D02*
X046706D01*
X046712Y028122D01*
X046756Y028056D01*
X046822Y028012D01*
X0469Y027996D01*
X046978Y028012D01*
X047044Y028056D01*
X047088Y028122D01*
X047094Y02815D01*
D02*
G37*
G36*
X0469Y028404D02*
X046822Y028388D01*
X046756Y028344D01*
X046712Y028278D01*
X046706Y02825D01*
X047094D01*
X047088Y028278D01*
X047044Y028344D01*
X046978Y028388D01*
X0469Y028404D01*
D02*
G37*
G36*
X047305Y028961D02*
X046917D01*
X046923Y028933D01*
X046967Y028867D01*
X047033Y028823D01*
X047111Y028807D01*
X047189Y028823D01*
X047255Y028867D01*
X047299Y028933D01*
X047305Y028961D01*
D02*
G37*
G36*
X04755Y028404D02*
X047472Y028388D01*
X047406Y028344D01*
X047362Y028278D01*
X047356Y02825D01*
X047744D01*
X047738Y028278D01*
X047694Y028344D01*
X047628Y028388D01*
X04755Y028404D01*
D02*
G37*
G36*
X053794Y031D02*
X053406D01*
X053412Y030972D01*
X053456Y030906D01*
X053522Y030862D01*
X0536Y030846D01*
X053678Y030862D01*
X053744Y030906D01*
X053788Y030972D01*
X053794Y031D01*
D02*
G37*
G36*
X0366Y038213D02*
X036538Y038201D01*
X036485Y038165D01*
X036449Y038112D01*
X036437Y03805D01*
Y0359D01*
X036449Y035838D01*
X036485Y035785D01*
X037637Y034632D01*
Y03395D01*
X037649Y033888D01*
X037685Y033835D01*
X038487Y033032D01*
Y0308D01*
X038499Y030738D01*
X038535Y030685D01*
X038588Y030649D01*
X03865Y030637D01*
X038712Y030649D01*
X038765Y030685D01*
X038801Y030738D01*
X038813Y0308D01*
Y032937D01*
X03945D01*
X039512Y032949D01*
X039565Y032985D01*
X039601Y033038D01*
X039613Y0331D01*
X039601Y033162D01*
X039565Y033215D01*
X039512Y033251D01*
X03945Y033263D01*
X038718D01*
X037963Y034018D01*
Y0347D01*
X037951Y034762D01*
X037915Y034815D01*
X036763Y035968D01*
Y03805D01*
X036751Y038112D01*
X036715Y038165D01*
X036662Y038201D01*
X0366Y038213D01*
D02*
G37*
G36*
X04455Y031708D02*
X044457Y031696D01*
X044371Y03166D01*
X044297Y031603D01*
X04424Y031529D01*
X044204Y031443D01*
X044192Y03135D01*
X044204Y031257D01*
X04424Y031171D01*
X044297Y031097D01*
X044371Y03104D01*
X044457Y031004D01*
X04455Y030992D01*
X044643Y031004D01*
X044729Y03104D01*
X044803Y031097D01*
X04486Y031171D01*
X044896Y031257D01*
X044908Y03135D01*
X044896Y031443D01*
X04486Y031529D01*
X044803Y031603D01*
X044729Y03166D01*
X044643Y031696D01*
X04455Y031708D01*
D02*
G37*
G36*
X04655D02*
X046457Y031696D01*
X046371Y03166D01*
X046297Y031603D01*
X04624Y031529D01*
X046204Y031443D01*
X046192Y03135D01*
X046204Y031257D01*
X04624Y031171D01*
X046297Y031097D01*
X046371Y03104D01*
X046457Y031004D01*
X04655Y030992D01*
X046643Y031004D01*
X046729Y03104D01*
X046803Y031097D01*
X04686Y031171D01*
X046896Y031257D01*
X046908Y03135D01*
X046896Y031443D01*
X04686Y031529D01*
X046803Y031603D01*
X046729Y03166D01*
X046643Y031696D01*
X04655Y031708D01*
D02*
G37*
G36*
X04555D02*
X045457Y031696D01*
X045371Y03166D01*
X045297Y031603D01*
X04524Y031529D01*
X045204Y031443D01*
X045192Y03135D01*
X045204Y031257D01*
X04524Y031171D01*
X045297Y031097D01*
X045371Y03104D01*
X045457Y031004D01*
X04555Y030992D01*
X045643Y031004D01*
X045729Y03104D01*
X045803Y031097D01*
X04586Y031171D01*
X045896Y031257D01*
X045908Y03135D01*
X045896Y031443D01*
X04586Y031529D01*
X045803Y031603D01*
X045729Y03166D01*
X045643Y031696D01*
X04555Y031708D01*
D02*
G37*
G36*
X05185Y031113D02*
X05175D01*
X05163Y031101D01*
X051515Y031066D01*
X051409Y03101D01*
X051317Y030933D01*
X05124Y030841D01*
X051184Y030735D01*
X051149Y03062D01*
X051137Y0305D01*
X051149Y03038D01*
X051184Y030265D01*
X05124Y030159D01*
X051317Y030067D01*
X051409Y02999D01*
X051515Y029934D01*
X05163Y029899D01*
X05175Y029887D01*
X05185D01*
X05197Y029899D01*
X052085Y029934D01*
X052191Y02999D01*
X052283Y030067D01*
X05236Y030159D01*
X052416Y030265D01*
X052451Y03038D01*
X052463Y0305D01*
X052451Y03062D01*
X052416Y030735D01*
X05236Y030841D01*
X052283Y030933D01*
X052191Y03101D01*
X052085Y031066D01*
X05197Y031101D01*
X05185Y031113D01*
D02*
G37*
G36*
X040044Y02985D02*
X039656D01*
X039662Y029822D01*
X039706Y029756D01*
X039772Y029712D01*
X03985Y029696D01*
X039928Y029712D01*
X039994Y029756D01*
X040038Y029822D01*
X040044Y02985D01*
D02*
G37*
G36*
X03985Y030104D02*
X039772Y030088D01*
X039706Y030044D01*
X039662Y029978D01*
X039656Y02995D01*
X040044D01*
X040038Y029978D01*
X039994Y030044D01*
X039928Y030088D01*
X03985Y030104D01*
D02*
G37*
G36*
X0536Y030554D02*
X053522Y030538D01*
X053456Y030494D01*
X053412Y030428D01*
X053406Y0304D01*
X053794D01*
X053788Y030428D01*
X053744Y030494D01*
X053678Y030538D01*
X0536Y030554D01*
D02*
G37*
G36*
X053794Y0303D02*
X053406D01*
X053412Y030272D01*
X053456Y030206D01*
X053522Y030162D01*
X0536Y030146D01*
X053678Y030162D01*
X053744Y030206D01*
X053788Y030272D01*
X053794Y0303D01*
D02*
G37*
G36*
X035844Y03735D02*
X035456D01*
X035462Y037322D01*
X035506Y037256D01*
X035572Y037212D01*
X03565Y037196D01*
X035728Y037212D01*
X035794Y037256D01*
X035838Y037322D01*
X035844Y03735D01*
D02*
G37*
G36*
X035244D02*
X034856D01*
X034862Y037322D01*
X034906Y037256D01*
X034972Y037212D01*
X03505Y037196D01*
X035128Y037212D01*
X035194Y037256D01*
X035238Y037322D01*
X035244Y03735D01*
D02*
G37*
G36*
X04813Y037436D02*
X047742D01*
X047748Y037408D01*
X047792Y037342D01*
X047858Y037298D01*
X047936Y037282D01*
X048014Y037298D01*
X04808Y037342D01*
X048124Y037408D01*
X04813Y037436D01*
D02*
G37*
G36*
X03565Y037604D02*
X035572Y037588D01*
X035506Y037544D01*
X035462Y037478D01*
X035456Y03745D01*
X035844D01*
X035838Y037478D01*
X035794Y037544D01*
X035728Y037588D01*
X03565Y037604D01*
D02*
G37*
G36*
X03505D02*
X034972Y037588D01*
X034906Y037544D01*
X034862Y037478D01*
X034856Y03745D01*
X035244D01*
X035238Y037478D01*
X035194Y037544D01*
X035128Y037588D01*
X03505Y037604D01*
D02*
G37*
G36*
X04435Y037163D02*
X044288Y037151D01*
X044235Y037115D01*
X044199Y037062D01*
X044187Y037D01*
Y036702D01*
X044066D01*
Y035598D01*
X044659D01*
Y036702D01*
X044513D01*
Y037D01*
X044501Y037062D01*
X044465Y037115D01*
X044412Y037151D01*
X04435Y037163D01*
D02*
G37*
G36*
X043084Y036702D02*
X042492D01*
Y035598D01*
X043084D01*
Y036702D01*
D02*
G37*
G36*
X0449Y037742D02*
X042D01*
X041965Y037735D01*
X041935Y037715D01*
X040085Y035865D01*
X040065Y035835D01*
X040058Y0358D01*
Y03045D01*
X040065Y030415D01*
X040085Y030385D01*
X040185Y030285D01*
X040215Y030265D01*
X04025Y030258D01*
X041358D01*
Y02905D01*
X041365Y029015D01*
X041385Y028985D01*
X041485Y028885D01*
X041515Y028865D01*
X04155Y028858D01*
X042069D01*
X042085Y028835D01*
X042132Y028803D01*
X042138Y028799D01*
X042175Y028787D01*
X042175Y028787D01*
X042163Y028742D01*
X041393D01*
X041359Y02878D01*
X041363Y0288D01*
X041351Y028862D01*
X041315Y028915D01*
X041262Y028951D01*
X0412Y028963D01*
X041138Y028951D01*
X041085Y028915D01*
X041049Y028862D01*
X041037Y0288D01*
X041046Y028755D01*
X041017Y028717D01*
X041007Y028712D01*
X041Y028713D01*
X040938Y028701D01*
X040885Y028665D01*
X040849Y028612D01*
X040837Y02855D01*
X040849Y028488D01*
X040885Y028435D01*
X040938Y028399D01*
X041Y028387D01*
X041062Y028399D01*
X041115Y028435D01*
X041118Y028438D01*
X04253D01*
X042565Y028445D01*
X042595Y028465D01*
X043038Y028908D01*
X0451D01*
X045135Y028915D01*
X045165Y028935D01*
X045215Y028985D01*
X045235Y029015D01*
X045242Y02905D01*
Y029299D01*
X045446D01*
Y030403D01*
X044854D01*
Y029299D01*
X045058D01*
Y029092D01*
X044082D01*
X044063Y029138D01*
X044224Y029299D01*
X044659D01*
Y030403D01*
X044066D01*
Y029401D01*
X043908Y029242D01*
X043167D01*
X043124Y029259D01*
X043124Y029292D01*
Y030443D01*
X042838D01*
Y029851D01*
X042738D01*
Y030443D01*
X042452D01*
Y029259D01*
X042761D01*
X042774Y029234D01*
X042779Y029209D01*
X042312Y028742D01*
X042237D01*
X042225Y028787D01*
X042225Y028787D01*
X042262Y028799D01*
X042268Y028803D01*
X042315Y028835D01*
X042351Y028888D01*
X042363Y02895D01*
X042351Y029012D01*
X042315Y029065D01*
X042262Y029101D01*
X0422Y029113D01*
X042138Y029101D01*
X042085Y029065D01*
X042069Y029042D01*
X041588D01*
X041542Y029088D01*
Y0303D01*
X041535Y030335D01*
X041515Y030365D01*
X041472Y030408D01*
X041477Y030435D01*
X04149Y030458D01*
X041908D01*
Y029418D01*
X041877Y029397D01*
X041841Y029344D01*
X041829Y029282D01*
X041841Y029219D01*
X041877Y029166D01*
X04193Y029131D01*
X041992Y029119D01*
X042055Y029131D01*
X042107Y029166D01*
X042143Y029219D01*
X042155Y029282D01*
X042143Y029344D01*
X042107Y029397D01*
X042092Y029408D01*
Y0305D01*
X042085Y030535D01*
X042065Y030565D01*
X042015Y030615D01*
X041985Y030635D01*
X04195Y030642D01*
X040488D01*
X040442Y030688D01*
Y030774D01*
X040492Y030789D01*
X040495Y030785D01*
X040548Y030749D01*
X04061Y030737D01*
X040672Y030749D01*
X040725Y030785D01*
X040741Y030808D01*
X043112D01*
X043467Y030453D01*
X043447Y030403D01*
X043279D01*
Y029299D01*
X043871D01*
Y030403D01*
X043667D01*
Y030475D01*
X04366Y03051D01*
X04364Y03054D01*
X043215Y030965D01*
X043185Y030985D01*
X04315Y030992D01*
X040988D01*
X040986Y030993D01*
X040963Y031042D01*
X040977Y031058D01*
X043312D01*
X043785Y030585D01*
X043815Y030565D01*
X04385Y030558D01*
X045812D01*
X045858Y030512D01*
Y030403D01*
X045641D01*
Y029299D01*
X046234D01*
Y030403D01*
X046042D01*
Y03055D01*
X046035Y030585D01*
X046015Y030615D01*
X045922Y030708D01*
X045927Y030735D01*
X04594Y030758D01*
X046487D01*
X046633Y030612D01*
Y030403D01*
X046429D01*
Y029299D01*
X047021D01*
Y030403D01*
X046817D01*
Y03065D01*
X04681Y030685D01*
X04679Y030715D01*
X04659Y030915D01*
X04656Y030935D01*
X046525Y030942D01*
X043971D01*
X043498Y031415D01*
X043468Y031435D01*
X043433Y031442D01*
X042381D01*
X042365Y031465D01*
X042312Y031501D01*
X04225Y031513D01*
X042188Y031501D01*
X042135Y031465D01*
X042099Y031412D01*
X042087Y03135D01*
X042098Y031292D01*
X042097Y03128D01*
X042077Y031242D01*
X040942D01*
X040926Y031265D01*
X040873Y031301D01*
X040811Y031313D01*
X040749Y031301D01*
X040696Y031265D01*
X04066Y031212D01*
X040648Y03115D01*
X040657Y031105D01*
X040628Y031068D01*
X040618Y031061D01*
X04061Y031063D01*
X040548Y031051D01*
X040495Y031015D01*
X040492Y031011D01*
X040442Y031026D01*
Y035662D01*
X042088Y037308D01*
X044407D01*
X044967Y036748D01*
X044948Y036702D01*
X044854D01*
Y035598D01*
X045446D01*
Y036702D01*
X04527D01*
X045265Y03671D01*
X04451Y037465D01*
X04448Y037485D01*
X044445Y037492D01*
X042075D01*
X042049Y037541D01*
X04206Y037558D01*
X044862D01*
X045672Y036748D01*
X045653Y036702D01*
X045641D01*
Y035598D01*
X046234D01*
Y036702D01*
X045978D01*
X044965Y037715D01*
X044935Y037735D01*
X0449Y037742D01*
D02*
G37*
G36*
X0381Y037162D02*
X0379D01*
X037832Y037153D01*
X037769Y037127D01*
X037715Y037085D01*
X037673Y037031D01*
X037647Y036968D01*
X037638Y0369D01*
X037647Y036832D01*
X037673Y036769D01*
X037715Y036715D01*
X037769Y036673D01*
X037832Y036647D01*
X0379Y036638D01*
X0381D01*
X038168Y036647D01*
X038231Y036673D01*
X038285Y036715D01*
X038327Y036769D01*
X038353Y036832D01*
X038362Y0369D01*
X038353Y036968D01*
X038327Y037031D01*
X038285Y037085D01*
X038231Y037127D01*
X038168Y037153D01*
X0381Y037162D01*
D02*
G37*
G36*
Y036162D02*
X0379D01*
X037832Y036153D01*
X037769Y036127D01*
X037715Y036085D01*
X037673Y036031D01*
X037647Y035968D01*
X037638Y0359D01*
X037647Y035832D01*
X037673Y035769D01*
X037715Y035715D01*
X037769Y035673D01*
X037832Y035647D01*
X0379Y035638D01*
X0381D01*
X038168Y035647D01*
X038231Y035673D01*
X038285Y035715D01*
X038327Y035769D01*
X038353Y035832D01*
X038362Y0359D01*
X038353Y035968D01*
X038327Y036031D01*
X038285Y036085D01*
X038231Y036127D01*
X038168Y036153D01*
X0381Y036162D01*
D02*
G37*
G36*
X04Y040504D02*
X039922Y040488D01*
X039856Y040444D01*
X039812Y040378D01*
X039806Y04035D01*
X040194D01*
X040188Y040378D01*
X040144Y040444D01*
X040078Y040488D01*
X04Y040504D01*
D02*
G37*
G36*
X040194Y04025D02*
X039806D01*
X039812Y040222D01*
X039856Y040156D01*
X039922Y040112D01*
X04Y040096D01*
X040078Y040112D01*
X040144Y040156D01*
X040188Y040222D01*
X040194Y04025D01*
D02*
G37*
G36*
X039242Y04155D02*
X038458D01*
X038465Y041497D01*
X038505Y041401D01*
X038568Y041318D01*
X038651Y041255D01*
X038747Y041215D01*
X03885Y041201D01*
X038953Y041215D01*
X039049Y041255D01*
X039132Y041318D01*
X039195Y041401D01*
X039235Y041497D01*
X039242Y04155D01*
D02*
G37*
G36*
X03885Y041999D02*
X038747Y041985D01*
X038651Y041945D01*
X038568Y041882D01*
X038505Y041799D01*
X038465Y041703D01*
X038458Y04165D01*
X039242D01*
X039235Y041703D01*
X039195Y041799D01*
X039132Y041882D01*
X039049Y041945D01*
X038953Y041985D01*
X03885Y041999D01*
D02*
G37*
G36*
X038205Y041955D02*
X037495D01*
Y041245D01*
X038205D01*
Y041955D01*
D02*
G37*
G36*
X041444Y0385D02*
X041056D01*
X041062Y038472D01*
X041106Y038406D01*
X041172Y038362D01*
X04125Y038346D01*
X041328Y038362D01*
X041394Y038406D01*
X041438Y038472D01*
X041444Y0385D01*
D02*
G37*
G36*
X047936Y03769D02*
X047858Y037674D01*
X047792Y03763D01*
X047748Y037564D01*
X047742Y037536D01*
X04813D01*
X048124Y037564D01*
X04808Y03763D01*
X048014Y037674D01*
X047936Y03769D01*
D02*
G37*
G36*
X04125Y038754D02*
X041172Y038738D01*
X041106Y038694D01*
X041062Y038628D01*
X041056Y0386D01*
X041444D01*
X041438Y038628D01*
X041394Y038694D01*
X041328Y038738D01*
X04125Y038754D01*
D02*
G37*
G36*
Y039404D02*
X041172Y039388D01*
X041106Y039344D01*
X041062Y039278D01*
X041056Y03925D01*
X041444D01*
X041438Y039278D01*
X041394Y039344D01*
X041328Y039388D01*
X04125Y039404D01*
D02*
G37*
G36*
X041444Y03915D02*
X041056D01*
X041062Y039122D01*
X041106Y039056D01*
X041172Y039012D01*
X04125Y038996D01*
X041328Y039012D01*
X041394Y039056D01*
X041438Y039122D01*
X041444Y03915D01*
D02*
G37*
G36*
X03935Y034254D02*
X039272Y034238D01*
X039206Y034194D01*
X039162Y034128D01*
X039156Y0341D01*
X039544D01*
X039538Y034128D01*
X039494Y034194D01*
X039428Y034238D01*
X03935Y034254D01*
D02*
G37*
G36*
X04875Y034104D02*
X048672Y034088D01*
X048606Y034044D01*
X048562Y033978D01*
X048556Y03395D01*
X048944D01*
X048938Y033978D01*
X048894Y034044D01*
X048828Y034088D01*
X04875Y034104D01*
D02*
G37*
G36*
X044394Y0343D02*
X044006D01*
X044012Y034272D01*
X044056Y034206D01*
X044122Y034162D01*
X0442Y034146D01*
X044278Y034162D01*
X044344Y034206D01*
X044388Y034272D01*
X044394Y0343D01*
D02*
G37*
G36*
X045794D02*
X045406D01*
X045412Y034272D01*
X045456Y034206D01*
X045522Y034162D01*
X0456Y034146D01*
X045678Y034162D01*
X045744Y034206D01*
X045788Y034272D01*
X045794Y0343D01*
D02*
G37*
G36*
X045094D02*
X044706D01*
X044712Y034272D01*
X044756Y034206D01*
X044822Y034162D01*
X0449Y034146D01*
X044978Y034162D01*
X045044Y034206D01*
X045088Y034272D01*
X045094Y0343D01*
D02*
G37*
G36*
X03685Y033454D02*
X036772Y033438D01*
X036706Y033394D01*
X036662Y033328D01*
X036656Y0333D01*
X037044D01*
X037038Y033328D01*
X036994Y033394D01*
X036928Y033438D01*
X03685Y033454D01*
D02*
G37*
G36*
X052692Y033913D02*
X052598Y033901D01*
X052511Y033864D01*
X052435Y033807D01*
X052378Y033732D01*
X052341Y033644D01*
X052329Y03355D01*
X052341Y033456D01*
X052378Y033368D01*
X052435Y033293D01*
X052511Y033236D01*
X052598Y033199D01*
X052692Y033187D01*
X052786Y033199D01*
X052874Y033236D01*
X052949Y033293D01*
X053007Y033368D01*
X053043Y033456D01*
X053055Y03355D01*
X053043Y033644D01*
X053007Y033732D01*
X052949Y033807D01*
X052874Y033864D01*
X052786Y033901D01*
X052692Y033913D01*
D02*
G37*
G36*
X048944Y03385D02*
X048556D01*
X048562Y033822D01*
X048606Y033756D01*
X048672Y033712D01*
X04875Y033696D01*
X048828Y033712D01*
X048894Y033756D01*
X048938Y033822D01*
X048944Y03385D01*
D02*
G37*
G36*
X039544Y034D02*
X039156D01*
X039162Y033972D01*
X039206Y033906D01*
X039272Y033862D01*
X03935Y033846D01*
X039428Y033862D01*
X039494Y033906D01*
X039538Y033972D01*
X039544Y034D01*
D02*
G37*
G36*
X03685Y034689D02*
X036736Y034674D01*
X036631Y03463D01*
X03654Y03456D01*
X03647Y034469D01*
X036426Y034364D01*
X036411Y03425D01*
X036426Y034136D01*
X03647Y034031D01*
X03654Y03394D01*
X036631Y03387D01*
X036736Y033826D01*
X03685Y033811D01*
X036964Y033826D01*
X037069Y03387D01*
X03716Y03394D01*
X03723Y034031D01*
X037274Y034136D01*
X037289Y03425D01*
X037274Y034364D01*
X03723Y034469D01*
X03716Y03456D01*
X037069Y03463D01*
X036964Y034674D01*
X03685Y034689D01*
D02*
G37*
G36*
X035Y035604D02*
X034922Y035588D01*
X034856Y035544D01*
X034812Y035478D01*
X034806Y03545D01*
X035194D01*
X035188Y035478D01*
X035144Y035544D01*
X035078Y035588D01*
X035Y035604D01*
D02*
G37*
G36*
X0412Y035882D02*
X041084Y035871D01*
X040972Y035837D01*
X040869Y035782D01*
X040779Y035708D01*
X040705Y035618D01*
X04065Y035515D01*
X040616Y035403D01*
X04061Y035337D01*
X04179D01*
X041784Y035403D01*
X04175Y035515D01*
X041695Y035618D01*
X041621Y035708D01*
X041531Y035782D01*
X041428Y035837D01*
X041316Y035871D01*
X0412Y035882D01*
D02*
G37*
G36*
X03565Y035604D02*
X035572Y035588D01*
X035506Y035544D01*
X035462Y035478D01*
X035456Y03545D01*
X035844D01*
X035838Y035478D01*
X035794Y035544D01*
X035728Y035588D01*
X03565Y035604D01*
D02*
G37*
G36*
X043911Y036742D02*
X043625D01*
Y03615D01*
Y035558D01*
X043911D01*
Y036742D01*
D02*
G37*
G36*
X043525D02*
X043239D01*
Y035558D01*
X043525D01*
Y03615D01*
Y036742D01*
D02*
G37*
G36*
X0383Y034704D02*
X038222Y034688D01*
X038156Y034644D01*
X038112Y034578D01*
X038106Y03455D01*
X038494D01*
X038488Y034578D01*
X038444Y034644D01*
X038378Y034688D01*
X0383Y034704D01*
D02*
G37*
G36*
X038494Y03445D02*
X038106D01*
X038112Y034422D01*
X038156Y034356D01*
X038222Y034312D01*
X0383Y034296D01*
X038378Y034312D01*
X038444Y034356D01*
X038488Y034422D01*
X038494Y03445D01*
D02*
G37*
G36*
X04179Y035237D02*
X04061D01*
X040616Y035171D01*
X04065Y035059D01*
X040705Y034956D01*
X040779Y034866D01*
X040869Y034792D01*
X040972Y034737D01*
X041084Y034703D01*
X0412Y034692D01*
X041316Y034703D01*
X041428Y034737D01*
X041531Y034792D01*
X041621Y034866D01*
X041695Y034956D01*
X04175Y035059D01*
X041784Y035171D01*
X04179Y035237D01*
D02*
G37*
G36*
X035844Y03535D02*
X035456D01*
X035462Y035322D01*
X035506Y035256D01*
X035572Y035212D01*
X03565Y035196D01*
X035728Y035212D01*
X035794Y035256D01*
X035838Y035322D01*
X035844Y03535D01*
D02*
G37*
G36*
X035194D02*
X034806D01*
X034812Y035322D01*
X034856Y035256D01*
X034922Y035212D01*
X035Y035196D01*
X035078Y035212D01*
X035144Y035256D01*
X035188Y035322D01*
X035194Y03535D01*
D02*
G37*
%LPD*%
D24*
X047111Y029011D02*
Y032089D01*
X03805Y03015D02*
Y0313D01*
Y03015D02*
X03965D01*
X03805Y02955D02*
Y03015D01*
X04755Y03145D02*
Y03455D01*
X04745Y03465D02*
X04755Y03455D01*
X043583Y03465D02*
X04745D01*
X0481Y03085D02*
Y0348D01*
X04805Y03485D02*
X0481Y0348D01*
X042866Y03485D02*
X04805D01*
X0451Y029D02*
X04515Y02905D01*
X043Y029D02*
X0451D01*
X04253Y02853D02*
X043Y029D01*
X04102Y02853D02*
X04253D01*
X04135Y02865D02*
X04235D01*
X04285Y02915D01*
X043946D01*
X044363Y029567D01*
X041Y02855D02*
X04102Y02853D01*
X0412Y0288D02*
X04135Y02865D01*
X04145Y02905D02*
Y0303D01*
Y02905D02*
X04155Y02895D01*
X0422D01*
X041992Y029282D02*
X042Y02929D01*
Y0305D01*
X0414Y03035D02*
X04145Y0303D01*
X04025Y03035D02*
X0414D01*
X04195Y03055D02*
X042Y0305D01*
X04045Y03055D02*
X04195D01*
X03985Y03035D02*
Y03395D01*
X03935Y03405D02*
X03975D01*
X03985Y03395D01*
X03965Y03015D02*
X03985Y03035D01*
X04015Y03045D02*
X04025Y03035D01*
X04035Y03065D02*
Y0357D01*
Y03065D02*
X04045Y03055D01*
X040811Y03115D02*
X04335D01*
X04225Y03135D02*
X043433D01*
X0408Y032511D02*
Y03335D01*
Y032511D02*
X040811Y0325D01*
X041796Y034063D02*
X042733Y035D01*
X041796Y032496D02*
Y034063D01*
X042189Y032489D02*
Y034173D01*
X0408Y03335D02*
X04265Y0352D01*
X042189Y034173D02*
X042866Y03485D01*
X0475Y03525D02*
Y036138D01*
X04745Y0352D02*
X0475Y03525D01*
X04265Y0352D02*
X04745D01*
X04825Y035D02*
X0483Y03505D01*
X042733Y035D02*
X04825D01*
X043Y034067D02*
X043583Y03465D01*
X0471Y0321D02*
X047111Y032089D01*
X04315Y0309D02*
X043575Y030475D01*
Y029851D02*
Y030475D01*
X04595Y03205D02*
Y0331D01*
X04515Y02905D02*
Y029851D01*
X044363Y029567D02*
Y029851D01*
X046725D02*
Y03065D01*
X046525Y03085D02*
X046725Y03065D01*
X043433Y03135D02*
X043933Y03085D01*
X046525D01*
X043Y03345D02*
Y034067D01*
X0483Y03505D02*
Y03615D01*
X04061Y0309D02*
X04315D01*
X04385Y03065D02*
X04585D01*
X04335Y03115D02*
X04385Y03065D01*
X0475Y036138D02*
X047512Y03615D01*
X0504Y03145D02*
Y03435D01*
X04515Y03615D02*
X0452Y0362D01*
X045937Y03615D02*
X04605Y036263D01*
X046725Y03615D02*
X04675Y036175D01*
X047512Y029851D02*
Y030262D01*
X0481Y03085D01*
X047512Y029851D02*
X0477Y030039D01*
X04595Y029863D02*
Y03055D01*
X04585Y03065D02*
X04595Y03055D01*
X045937Y029851D02*
X04595Y029863D01*
X04035Y0357D02*
X04205Y0374D01*
X04015Y03045D02*
Y0358D01*
X042Y03765D01*
X039Y0336D02*
Y035D01*
X0419Y0379D01*
X042Y03765D02*
X0449D01*
X04605Y0365D01*
Y036263D02*
Y0365D01*
X0419Y0379D02*
X04545D01*
X04675Y0366D01*
Y036175D02*
Y0366D01*
X044445Y0374D02*
X0452Y036645D01*
X04205Y0374D02*
X044445D01*
X0452Y0362D02*
Y036645D01*
D25*
X03865Y0331D02*
X03945D01*
X0378Y03395D02*
X03865Y0331D01*
Y0308D02*
Y0331D01*
X0378Y03395D02*
Y0347D01*
X0366Y0359D02*
X0378Y0347D01*
X0366Y0359D02*
Y03805D01*
X04435Y036163D02*
X044363Y03615D01*
X04435Y036163D02*
Y037D01*
D27*
X052692Y03355D02*
D03*
X051708D02*
D03*
D28*
X03785Y0416D02*
D03*
D29*
X03885D02*
D03*
X04455Y03135D02*
D03*
X04555D02*
D03*
X04655D02*
D03*
X04755D02*
D03*
D30*
X044456Y026918D02*
D03*
Y052509D02*
D03*
D31*
X042Y043047D02*
D03*
Y048953D02*
D03*
X0525Y049103D02*
D03*
Y043197D02*
D03*
X045289Y043385D02*
D03*
X04525Y0487D02*
D03*
X049423D02*
D03*
Y043385D02*
D03*
X0369Y04815D02*
D03*
X0389D02*
D03*
D32*
X0412Y04135D02*
D03*
D33*
X052775Y037334D02*
D03*
Y039303D02*
D03*
X0412Y035287D02*
D03*
D34*
X03965Y04635D02*
D03*
Y04335D02*
D03*
D35*
X0518Y032D02*
D03*
Y0305D02*
D03*
D36*
X03695Y0458D02*
D03*
Y0438D02*
D03*
D37*
X03685Y03225D02*
D03*
Y03425D02*
D03*
D38*
X038Y0359D02*
D03*
Y0369D02*
D03*
D39*
X047111Y029011D02*
D03*
X03805Y0313D02*
D03*
Y02955D02*
D03*
X041Y02855D02*
D03*
X0412Y0288D02*
D03*
X0422Y02895D02*
D03*
X041992Y029282D02*
D03*
X040811Y03115D02*
D03*
X04061Y0309D02*
D03*
X04225Y03135D02*
D03*
X040811Y0325D02*
D03*
X041796Y032496D02*
D03*
X042189Y032489D02*
D03*
X04595Y0331D02*
D03*
Y03205D02*
D03*
X0358Y0312D02*
D03*
X03635D02*
D03*
X0442Y03435D02*
D03*
X0471Y0321D02*
D03*
X03945Y0331D02*
D03*
X04875Y0339D02*
D03*
X04425Y0328D02*
D03*
X03935Y03405D02*
D03*
X039Y0336D02*
D03*
X0536Y03035D02*
D03*
X04Y0403D02*
D03*
X0504Y03435D02*
D03*
Y03145D02*
D03*
X043Y03345D02*
D03*
X03865Y0308D02*
D03*
X04435Y037D02*
D03*
X0366Y03805D02*
D03*
X0536Y03105D02*
D03*
X0456Y03435D02*
D03*
X03685Y03325D02*
D03*
X03985Y0299D02*
D03*
X04755Y0282D02*
D03*
X0469D02*
D03*
X03505Y0374D02*
D03*
X03565D02*
D03*
Y0354D02*
D03*
X035D02*
D03*
X04125Y0392D02*
D03*
Y03855D02*
D03*
X047936Y037486D02*
D03*
X0536Y0324D02*
D03*
Y0317D02*
D03*
X0383Y0345D02*
D03*
X0449Y03435D02*
D03*
D40*
X042788Y03615D02*
D03*
X043575D02*
D03*
X044363D02*
D03*
X04515D02*
D03*
X045937D02*
D03*
X046725D02*
D03*
X047512D02*
D03*
X0483D02*
D03*
X042788Y029851D02*
D03*
X043575D02*
D03*
X044363D02*
D03*
X04515D02*
D03*
X045937D02*
D03*
X046725D02*
D03*
X047512D02*
D03*
X0483D02*
D03*
D41*
X053947Y037347D02*
Y049103D01*
X053934Y037334D02*
X053947Y037347D01*
X041697Y04335D02*
X042Y043047D01*
X03965Y04335D02*
X041697D01*
X052775Y037334D02*
X053934D01*
X0525Y049103D02*
X053947D01*
X0498Y039303D02*
X052775D01*
X0494Y039703D02*
Y043362D01*
Y039703D02*
X0498Y039303D01*
X0494Y043362D02*
X049423Y043385D01*
X03695Y0438D02*
X0374Y04335D01*
X03965D01*
X049423Y043385D02*
X049611Y043197D01*
X0525D01*
X044952Y043047D02*
X045289Y043385D01*
X042Y043047D02*
X044952D01*
X049423Y0487D02*
X049826Y049103D01*
X0525D01*
X044997Y048953D02*
X04525Y0487D01*
X042Y048953D02*
X044997D01*
X042Y0482D02*
Y048953D01*
X04195Y04815D02*
X042Y0482D01*
X03965Y04815D02*
X04195D01*
X03965Y04635D02*
Y04815D01*
X0389D02*
X03965D01*
X0369Y04585D02*
X03695Y0458D01*
X0369Y04585D02*
Y04815D01*
M02*
