M48
;Layer_Color=9474304
;FILE_FORMAT=2:4
INCH,LZ
;TYPE=PLATED
T1F00S00C0.0100
T2F00S00C0.0250
T3F00S00C0.0300
T4F00S00C0.0315
T5F00S00C0.0354
T6F00S00C0.0394
T7F00S00C0.0433
T8F00S00C0.0500
T9F00S00C0.0600
T10F00S00C0.1575
%
T01
X0469Y0282
X04755
X047111Y029011
X0536Y03035
Y03105
X040811Y03115
X04061Y0309
X03985Y0299
X03865Y0308
X03805Y02955
X03635Y0312
X0358
X0412Y0288
X041Y02855
X0422Y02895
X041992Y029282
X04225Y03135
X042189Y032489
X041796Y032496
X040811Y0325
X03945Y0331
X039Y0336
X03935Y03405
X0383Y0345
X03685Y03325
X03805Y0313
X03565Y0354
X035
X03505Y0374
X03565
X0366Y03805
X04125Y03855
Y0392
X04Y0403
X04435Y037
X0442Y03435
X0449
X0456
X04595Y0331
Y03205
X04425Y0328
X043Y03345
X0471Y0321
X04875Y0339
X0504Y03435
Y03145
X0536Y0317
Y0324
X047936Y037486
T02
X038Y0359
Y0369
T03
X051708Y03355
X052692
T04
X0369Y04815
X0389
T05
X04455Y03135
X04555
X04655
X03885Y0416
X03785
X03965Y04335
Y04635
X04755Y03135
T06
X03685Y03225
Y03425
X042Y043047
X045289Y043385
X049423
X0525Y043197
Y049103
X049423Y0487
X04525
X042Y048953
T07
X0412Y035287
Y04135
X052775Y039303
Y037334
T08
X03695Y0438
Y0458
T09
X0518Y0305
Y032
T10
X044456Y026918
Y052509
M30
