Removed Pin From Net: NetName=GND Pin=C6-2
Removed Pin From Net: NetName=GND Pin=C7-2
Removed Member From Class: ClassName=Sheet1 Member=C6
Removed Member From Class: ClassName=Sheet1 Member=C7
Removed Member From Class: ClassName=Sheet1 Member=Y2
Added Member To Class: ClassName=Sheet1 Member=Component U2 Hi-Link 5V-3W
Added Member To Class: ClassName=Sheet1 Member=Component U3 RT9193
Added Room: Name=Sheet1
