Added Component: Designator=S1(HS1101)
Add component. Clean all parameters for all variants
Added Pin To Net: NetName=NetR11_2 Pin=S1-1
Added Member To Class: ClassName=Sheet1 Member=Component S1 HS_SENSOR
Added Room: Name=Sheet1
